Introduction
…
    # Ligand/Receptor analysis using SingleCellSignalR
    data %>%
      cell_signaling(genes = rownames(data), cluster = cluster) %>%
      inter_network(data = data, signal = ., genes = rownames(data), cluster = cluster) %$%
      `individual-networks` %>%
      map_dfr(~ bind_rows(as_tibble(.x)))
  }))

pbmc_small_nested_interactions %>%
  select(-data) %>%
  unnest(interactions)

If the data set was not so small, and interactions could be identified, you would see something as below.

## # A tibble: 100 x 9
##    sample ligand receptor ligand.name receptor.name origin destination
##    <chr>  <chr>  <chr>    <chr>       <chr>         <chr>  <chr>      
##  1 sampl… clust… cluster… PTMA        VIPR1         clust… cluster 2  
##  2 sampl… clust… cluster… B2M         KLRD1         clust… cluster 2  
##  3 sampl… clust… cluster… IL16        CD4           clust… cluster 2  
##  4 sampl… clust… cluster… HLA-B       KLRD1         clust… cluster 2  
##  5 sampl… clust… cluster… CALM1       VIPR1         clust… cluster 2  
##  6 sampl… clust… cluster… HLA-E       KLRD1         clust… cluster 2  
##  7 sampl… clust… cluster… GNAS        VIPR1         clust… cluster 2  
##  8 sampl… clust… cluster… B2M         HFE           clust… cluster 2  
##  9 sampl… clust… cluster… PTMA        VIPR1         clust… cluster 3  
## 10 sampl… clust… cluster… CALM1       VIPR1         clust… cluster 3  
## # … with 90 more rows, and 2 more variables: interaction.type <chr>,
## #   LRscore <dbl>
…
